Name,Sex,Equipment,BodyweightKg,WeightClassKg,Division,Best3SquatKg,Best3BenchKg,Best3DeadliftKg,TotalKg,Place,Event
Marina Cornwall,F,Raw,45.45,47,F-C-M2,85,50,122.5,257.5,1,SBD
Joy Nnamani,F,Raw,50.9,52,F-C-J,122.5,65,170,357.5,1,SBD
Emma Goodwin,F,Raw,51.45,52,F-C-S,102.5,62.5,145,310,1,SBD
Michelle Trench,F,Raw,48.95,52,F-C-S,50,32.5,115,197.5,2,SBD
Hannah Chan,F,Raw,56.95,57,F-C-J,112.5,57.5,115,285,1,SBD
Vanessa Butler,F,Raw,55.4,57,F-C-M1,85,47.5,105,237.5,1,SBD
Faye Jordan,F,Raw,56.6,57,F-C-S,,,,,DQ,SBD
Khrys Kyriacou,F,Raw,62.3,63,F-C-M1,135,75,147.5,357.5,1,SBD
Beverley Rodgers,F,Raw,62.7,63,F-C-M1,115,77.5,130,322.5,2,SBD
Karenjeet Bains,F,Raw,61.5,63,F-C-SJ,117.5,62.5,140,320,1,SBD
Hollie Johnson,F,Raw,62.3,63,F-C-S,105,60,130,295,1,SBD
Mollie Chapman,F,Raw,61.5,63,F-C-J,92.5,52.5,110,255,1,SBD
Rhiannon Archer,F,Raw,61.95,63,F-C-S,,55,125,,DQ,SBD
Louise Richardson,F,Raw,68.55,72,F-C-S,155,72.5,170,397.5,1,SBD
Ruta Lendraitiene,F,Raw,70.2,72,F-C-S,132.5,85,145,362.5,2,SBD
Nina Cambatta,F,Raw,67.3,72,F-C-S,125,67.5,165,357.5,3,SBD
Jeni Aulman,F,Raw,69.95,72,F-C-M1,115,65,160,340,1,SBD
Hannah Yardy,F,Raw,68.2,72,F-C-S,105,65,160,330,4,SBD
Megan Davies,F,Raw,69.45,72,F-C-J,110,57.5,145,312.5,5,SBD
Kimberley Cowell,F,Raw,69.75,72,F-C-S,100,65,140,305,5,SBD
Wendy Williams,F,Raw,66.15,72,F-C-M1,110,52.5,137.5,300,2,SBD
Gloria Fitzpatrick,F,Raw,69.05,72,F-C-M2,90,50,122.5,262.5,1,SBD
Lottie Hall,F,Raw,69.5,72,F-C-S,95,45,115,255,6,SBD
Julie Briggs,F,Raw,67.9,72,F-C-M2,80,45,115,240,2,SBD
Suzie Taljard,F,Raw,78.75,84,F-C-S,97.5,57.5,135,290,1,SBD
Charlie Chester,F,Raw,89.75,84+,F-C-J,165,70,175.5,410.5,1,SBD
Jackie Blasbery,F,Raw,87.5,84+,F-C-M2,120,87.5,152.5,360,1,SBD
Danielle Johnson,F,Raw,85.4,84+,F-C-S,135,57.5,165,357.5,1,SBD
Sarah Marsden,F,Raw,100,84+,F-C-M1,130,82.5,145,357.5,1,SBD
Laura Shea,F,Raw,113.95,84+,F-C-S,130,70,137.5,337.5,2,SBD
Jo Myles,F,Raw,96.35,84+,F-C-S,107.5,55,140,302.5,3,SBD
Ted Brown,M,Raw,57.9,59,M-C-M5,85,75,120,280,1,SBD
Nathaniel Shaw,M,Raw,64.55,66,M-C-J,190.5,107.5,225,523,1,SBD
Andrew Dawes,M,Raw,63,66,M-C-S,187.5,127.5,202.5,517.5,1,SBD
Jordan Lam,M,Raw,65.5,66,M-C-J,177.5,112.5,227.5,517.5,2,SBD
J Phillips,M,Raw,65.9,66,M-C-J,180,113,210,503,3,SBD
Paul Bartlett,M,Raw,63.75,66,M-C-S,172.5,110,202.5,485,2,SBD
Jed Casco,M,Raw,65.3,66,M-C-J,172.5,95,182.5,450,4,SBD
Connor Burkhill,M,Raw,63.8,66,M-C-SJ,147.5,105.5,175,428,1,SBD
Ben Johnson,M,Raw,65.6,66,M-C-J,150,105,170,425,5,SBD
Ploutis Koumi,M,Raw,60.55,66,M-C-SJ,140,90,194,424,2,SBD
Salman Khan,M,Raw,73.4,74,M-C-J,210,135,252.5,597.5,1,SBD
Tim Baker,M,Raw,72.25,74,M-C-S,190,130,265,585,1,SBD
Steven Tyers,M,Raw,72.75,74,M-C-S,195,140,250,585,2,SBD
Scott Bradwell,M,Raw,73.6,74,M-C-S,195,145,230,570,3,SBD
Joshua Bosman,M,Raw,73.45,74,M-C-J,180,115,255,550,2,SBD
Tom Dunning,M,Raw,72.4,74,M-C-J,202.5,122.5,222.5,547.5,3,SBD
Ronan Bell,M,Raw,71.35,74,M-C-M1,173,115,202.5,490.5,1,SBD
Corey Wiggins,M,Raw,71.7,74,M-C-J,160,122.5,202.5,485,4,SBD
Sam Tomkins,M,Raw,73.1,74,M-C-S,150,110,212.5,472.5,4,SBD
Declan Challoner,M,Raw,72.8,74,M-C-J,147.5,107.5,205,460,5,SBD
Ben Richens,M,Raw,72.6,74,M-C-S,155,97.5,185,437.5,5,SBD
Ben Sugarman,M,Raw,68.9,74,M-C-SJ,160,75,190,425,1,SBD
Mick Coopey,M,Raw,72.25,74,M-C-M2,167.5,107.5,140,415,1,SBD
Ben Sparks,M,Raw,73.1,74,M-C-SJ,137.5,70,202.5,410,2,SBD
Alan Twigg,M,Raw,73,74,M-C-M3,95,110,190,395,1,SBD
Henry Clark,M,Raw,72.9,74,M-C-M4,130,57.5,150,337,1,SBD
Mark Hodgett,M,Raw,82.7,83,M-C-S,217.5,147.5,290.5,655.5,1,SBD
Owen Lockwood,M,Raw,80.65,83,M-C-J,210,132.5,262.5,605,1,SBD
Lee Betteridge,M,Raw,82.65,83,M-C-S,200,140,245,585,2,SBD
David O'Brien,M,Raw,82.2,83,M-C-M1,200,130,230,560,1,SBD
Lewis Ball,M,Raw,81,83,M-C-J,192.5,130,225,547.5,2,SBD
Matthew Price,M,Raw,80.65,83,M-C-J,172.5,120,250,542.5,3,SBD
Grant Sugarman,M,Raw,82.4,83,M-C-M2,180,115,230,525,1,SBD
Christopher McKenzie,M,Raw,81.4,83,M-C-S,190,112.5,220,522.5,3,SBD
Jack Kuhnert,M,Raw,81,83,M-C-J,175,140,205,520,4,SBD
Adam Sawyers,M,Raw,78.5,83,M-C-J,195,100,222.5,517.5,5,SBD
Mike Round,M,Raw,82.35,83,M-C-M2,175,135,200,510,2,SBD
Ernie Parkes,M,Raw,81.7,83,M-C-M4,162.5,85,225.5,473,1,SBD
Phillip Wood,M,Raw,80.75,83,M-C-S,157.5,110,205,472.5,4,SBD
A. Wilson,M,Raw,80.35,83,M-C-S,150,115,200,465,5,SBD
Gary Lovett,M,Raw,82.15,83,M-C-M1,142.5,115,175,432.5,2,SBD
Neil Butler,M,Raw,82.1,83,M-C-M2,145,100,185,430,3,SBD
Andy Bonner,M,Raw,91.45,93,M-C-M3,250,142.5,276,668.5,1,SBD
Tom Gee #1,M,Raw,92.7,93,M-C-S,215,172.5,270,657.5,1,SBD
Ronald Karim,M,Raw,89.4,93,M-C-S,235,160,260,655,2,SBD
Frederick Annan,M,Raw,86.35,93,M-C-S,210,162.5,265,637.5,3,SBD
Sheridan Wray,M,Raw,92.45,93,M-C-M1,210,170,240,620,1,SBD
Dan Watkins,M,Raw,88.7,93,M-C-S,195,172.5,240,607.5,4,SBD
Derek Hussey,M,Raw,90.4,93,M-C-S,215,150,235,600,5,SBD
Stuart Alexander,M,Raw,91.4,93,M-C-M1,215,132.5,250,597.5,2,SBD
Drew Blackman,M,Raw,91.3,93,M-C-S,207.5,130,225,562.5,6,SBD
Tim Wheeler,M,Raw,93,93,M-C-M1,205,110,245,560,3,SBD
Richard Thimbleby,M,Raw,92.55,93,M-C-S,200,127.5,230,557.5,7,SBD
Jason Hunton,M,Raw,88.1,93,M-C-S,190,127.5,227.5,545,8,SBD
Jonathan Faasse,M,Raw,90.15,93,M-C-S,202.5,120,220,542.5,9,SBD
A. Jones,M,Raw,89.3,93,M-C-J,170,122.5,240,532.5,1,SBD
Farris Collins,M,Raw,90.7,93,M-C-SJ,190,125,205,520,1,SBD
Alexander Leeder,M,Raw,87.55,93,M-C-S,177.5,117.5,222.5,517.5,10,SBD
John O'Riordan,M,Raw,85.5,93,M-C-M2,162.5,140,210,512.5,1,SBD
William Westwater,M,Raw,90.75,93,M-C-M2,180,115,210,505,2,SBD
Paul Watton,M,Raw,91.5,93,M-C-M1,,95,180,,DQ,SBD
Thomas Celestin,M,Raw,102.9,105,M-C-M1,245,125,312.5,682.5,1,SBD
Matt Deacon-Smith,M,Raw,103.9,105,M-C-J,245,135,295,675,1,SBD
Alexander Pierides,M,Raw,98.65,105,M-C-J,247.5,165,260,672.5,2,SBD
M Strong,M,Raw,101.85,105,M-C-S,220,162.5,265,647.5,1,SBD
M Roberts,M,Raw,102.4,105,M-C-S,220,155,270,645,2,SBD
Steve Blackwell,M,Raw,101.75,105,M-C-M2,225,150,267.5,642.5,1,SBD
James Bartle,M,Raw,103.3,105,M-C-S,225,142.5,275,642.5,3,SBD
Harry O'Neilly,M,Raw,100.5,105,M-C-J,215,165,250,630,3,SBD
Richard Patman,M,Raw,94.9,105,M-C-S,215,175,235,625,4,SBD
Jordan Butel,M,Raw,102.35,105,M-C-S,205,150,215,570,5,SBD
Justin Jakubait,M,Raw,104.1,105,M-C-M1,205,130,200,535,2,SBD
Kieran Stubbings,M,Raw,102.9,105,M-C-SJ,192.5,122.5,207.5,522.5,1,SBD
Bradley May,M,Raw,102.9,105,M-C-SJ,165,105,220,490,2,SBD
Ross Cartwright,M,Raw,100.4,105,M-C-SJ,160,112.5,162.5,435,3,SBD
Dan Lindsell,M,Raw,118.5,120,M-C-S,225,175,280,680,1,SBD
Christopher Corbin,M,Raw,119,120,M-C-J,232.5,145,262.5,640,1,SBD
Jon Askey,M,Raw,119.3,120,M-C-S,232.5,140,267.5,640,2,SBD
Tommy Bebb,M,Raw,115.7,120,M-C-J,220,155,242.5,617.5,2,SBD
Louis Phelps,M,Raw,113.7,120,M-C-S,220,130,250,600,3,SBD
Alan Silvester,M,Raw,112.6,120,M-C-S,195,127.5,245,567.5,4,SBD
Ian Finch,M,Raw,106.6,120,M-C-M2,172.5,112.5,215,500,1,SBD
Ian Ryan,M,Raw,117.8,120,M-C-M1,180,130,190,500,1,SBD
R Nichols,M,Raw,138,120+,M-C-S,265,165,285,715,1,SBD
Christopher Hartwig,M,Raw,131.9,120+,M-C-S,240,177.5,295,712.5,2,SBD
Sharn Rowlands,F,Single-ply,42.2,43,F-E-J,145,67.5,120,332.5,1,SBD
Louise Edwards,F,Single-ply,50.9,52,F-E-S,115,72.5,145,332.5,1,SBD
Carole Taylor,F,Single-ply,55.4,57,F-E-M2,135.5,62.5,160,358,1,SBD
Susie Butler,F,Single-ply,55.8,57,F-E-J,135,80,130,345,1,SBD
Helen Toms,F,Single-ply,84.4,84+,F-E-M2,142.5,70,145,357.5,1,SBD
Kelly Phasey,F,Single-ply,111.9,84+,F-E-S,,117.5,,,DQ,SBD
Glen Blacklock,M,Single-ply,82.4,83,M-E-M1,230,142.5,235,607.5,1,SBD
Mark Walker,M,Single-ply,103.9,105,M-E-S,260,152.5,260,672.5,1,SBD
Duncan Sharp,M,Single-ply,104.6,105,M-E-S,200,212.5,190,602.5,2,SBD
Jim Dulling,M,Single-ply,104.1,105,M-E-M3,180,105,225,510,1,SBD
Tony Cliffe,M,Single-ply,118.5,120,M-E-S,380,290,350,1020,1,SBD
Sam Harvey,M,Single-ply,118.1,120,M-E-J,265,190,250,705,1,SBD
Steve Gott,M,Single-ply,119,120,M-E-M1,202.5,220,260,682.5,1,SBD
Pinda Singh,M,Single-ply,119.1,120,M-E-M1,230,110,260,600,2,SBD
