Name,Birthday
Ellen Stein,1953-02-21
Melvin West,1977-04-27
Rob Hall,1989-01-18
Trystan Oakley,1996-10-22
Vikki Traugot,1962-08-29
Zahir Khudayarov,1983-07-18
Terence Todd,1938-01-01
Hideaki Inaba,1944-01-13
Lamar Gant,1957-08-11
Larry Pacifico,1946-01-17
Ed Coan,1963-07-24
Precious McKenzie,1936-06-06
Vince Anello,1947-09-02
Mike Bridges,1957-02-01
Don Reinhoudt,1945-03-06
David Ricks,1959-07-27
Rickey Dale Crain,1953-02-18
Bill Kazmaier,1953-12-30
