Division,WeightClassKg,Place,Name,Team,BodyweightKg,Best3SquatKg,Best3BenchKg,Best3DeadliftKg,TotalKg,Equipment,Event,Sex
Boys,52,1,Andrew Luna,Perryton,51.62,129.27,72.57,127.01,328.85,Single-ply,SBD,M
Boys,52,2,Axel Hernandez,Dumas,49.99,106.59,56.7,124.74,288.03,Single-ply,SBD,M
Boys,52,3,Preston Mann,Amarillo Highland Park,51.71,108.86,63.5,113.4,285.76,Single-ply,SBD,M
Boys,52,4,Jordan Hays,Panhandle,48.35,72.57,49.9,92.99,215.46,Single-ply,SBD,M
Boys,52,DQ,Peter Nguyen #2,Amarillo Highland Park,49.71,,,,,Single-ply,SBD,M
Boys,56,1,Kevin Nguyen,Amarillo Highland Park,54.52,145.15,81.65,167.83,394.63,Single-ply,SBD,M
Boys,56,2,Joseph Jenkins,Perryton,55.79,136.08,90.72,156.49,383.29,Single-ply,SBD,M
Boys,56,3,Landon Williams,Dumas,55.07,140.61,88.45,151.95,381.02,Single-ply,SBD,M
Boys,56,4,Billy Lee,Amarillo Highland Park,55.52,131.54,81.65,149.69,362.87,Single-ply,SBD,M
Boys,56,5,Bryan Nguyen,Amarillo Highland Park,54.43,127.01,68.04,142.88,337.93,Single-ply,SBD,M
Boys,56,6,Corbin Byrd,Dalhart,54.34,124.74,61.23,124.74,310.71,Single-ply,SBD,M
Boys,60,1,Landon Johnson,Amarillo Highland Park,58.42,149.69,88.45,161.03,399.16,Single-ply,SBD,M
Boys,60,2,Dawson Hackett,Panhandle,59.33,142.88,83.91,161.03,387.82,Single-ply,SBD,M
Boys,60,3,Ceasar Luther,Perryton,59.15,131.54,92.99,145.15,369.68,Single-ply,SBD,M
Boys,60,4,Matthew Cano,Perryton,59.87,127.01,86.18,154.22,367.41,Single-ply,SBD,M
Boys,60,5,Thane Adams,Panhandle,58.51,102.06,70.31,106.59,278.96,Single-ply,SBD,M
Boys,67.5,1,Alex Lugo,Perryton,67.13,195.04,113.4,204.12,512.56,Single-ply,SBD,M
Boys,67.5,2,Adrian Bedoy,Dumas,65.23,170.1,90.72,188.24,449.06,Single-ply,SBD,M
Boys,67.5,3,Luis Ramos,Dumas,64.68,158.76,86.18,181.44,426.38,Single-ply,SBD,M
Boys,67.5,4,Trevor Bennett,Perryton,64.46,129.27,86.18,149.69,365.14,Single-ply,SBD,M
Boys,67.5,5,Maynor Vasquez,Dumas,63.68,102.06,74.84,147.42,324.32,Single-ply,SBD,M
Boys,67.5,6,Kenny Ramirez,Perryton,62.14,115.67,68.04,124.74,308.44,Single-ply,SBD,M
Boys,67.5,7,Maverick Hale,Panhandle,64.5,102.06,56.7,115.67,274.42,Single-ply,SBD,M
Boys,75,1,Garron Weber,Borger,73.62,208.65,138.35,249.48,596.47,Single-ply,SBD,M
Boys,75,2,Noah Martinez,Dalhart,72.57,217.72,120.2,217.72,555.65,Single-ply,SBD,M
Boys,75,3,Paul Hernandez,Dumas,73.57,154.22,102.06,192.78,449.06,Single-ply,SBD,M
Boys,75,4,Josue Becerril,Perryton,70.03,170.1,97.52,174.63,442.25,Single-ply,SBD,M
Boys,75,5,Danny Hillyer,Borger,74.75,147.42,102.06,179.17,428.64,Single-ply,SBD,M
Boys,75,6,Mario Banos,Perryton,73.03,156.49,92.99,167.83,417.3,Single-ply,SBD,M
Boys,75,7,Jaden Shaver,Panhandle,70.22,163.29,92.99,156.49,412.77,Single-ply,SBD,M
Boys,75,8,Houston Heck,Panhandle,69.49,165.56,81.65,140.61,387.82,Single-ply,SBD,M
Boys,75,9,Zane Hackett,Panhandle,74.3,136.08,90.72,147.42,374.21,Single-ply,SBD,M
Boys,75,10,Ethan Shadid,Panhandle,68.04,124.74,79.38,147.42,351.53,Single-ply,SBD,M
Boys,75,11,Charles Barnes,Dumas,70.58,115.67,65.77,158.76,340.19,Single-ply,SBD,M
Boys,75,12,Matt Anders,Amarillo Highland Park,69.49,92.99,70.31,129.27,292.57,Single-ply,SBD,M
Boys,82.5,1,Davian Gates,Dumas,78.83,145.15,106.59,176.9,428.64,Single-ply,SBD,M
Boys,82.5,2,Edgar Granados,Perryton,77.02,151.95,90.72,181.44,424.11,Single-ply,SBD,M
Boys,82.5,3,Carson Smith,Dalhart,80.74,167.83,81.65,147.42,396.89,Single-ply,SBD,M
Boys,82.5,4,Carson Ward,Borger,79.56,124.74,54.43,115.67,294.84,Single-ply,SBD,M
Boys,90,1,DJ Petties,Dalhart,84.73,188.24,102.06,244.94,535.24,Single-ply,SBD,M
Boys,90,2,Antonio Covarrubias,Perryton,89.18,195.04,113.4,201.85,510.29,Single-ply,SBD,M
Boys,90,3,Angel Luther,Perryton,88.18,181.44,117.93,190.51,489.88,Single-ply,SBD,M
Boys,90,4,Antonio Rangel,Dumas,89.09,183.7,104.33,192.78,480.81,Single-ply,SBD,M
Boys,90,5,Marcos Saucedo,Dumas,84.19,174.63,120.2,163.29,458.13,Single-ply,SBD,M
Boys,90,6,Christian Sanchez,Dumas,87.91,149.69,106.59,188.24,444.52,Single-ply,SBD,M
Boys,90,7,Juan Ramirez,Dumas,88.63,133.81,90.72,174.63,399.16,Single-ply,SBD,M
Boys,90,8,Wade Alexander,Panhandle,86.18,102.06,56.7,142.88,301.64,Single-ply,SBD,M
Boys,100,1,Uriel Hernandez,Perryton,98.88,229.06,129.27,222.26,580.6,Single-ply,SBD,M
Boys,100,2,Austin Adams,Dumas,92.17,185.97,129.27,204.12,519.36,Single-ply,SBD,M
Boys,100,3,Mario Becerril,Perryton,97.25,181.44,111.13,181.44,474,Single-ply,SBD,M
Boys,100,4,Augustine Moreno,Amarillo Highland Park,92.62,174.63,111.13,172.37,458.13,Single-ply,SBD,M
Boys,100,5,Jay Ramirez,Perryton,98.79,174.63,95.25,176.9,446.79,Single-ply,SBD,M
Boys,100,6,Max Acosta,Dumas,91.53,140.61,124.74,170.1,435.45,Single-ply,SBD,M
Boys,100,7,Xavier Muro,Borger,97.79,156.49,83.91,183.7,424.11,Single-ply,SBD,M
Boys,100,8,Jaziel Torres,Borger,97.16,161.03,83.91,149.69,394.63,Single-ply,SBD,M
Boys,100,9,Jose Rosales,Perryton,99.79,124.74,79.38,138.35,342.46,Single-ply,SBD,M
Boys,100,10,Nash Stewart,Perryton,96.34,106.59,74.84,129.27,310.71,Single-ply,SBD,M
Boys,110,1,Gustavo Navarrete,Perryton,106.59,244.94,142.88,242.67,630.49,Single-ply,SBD,M
Boys,110,2,Jesus Cervantes,Perryton,107.5,213.19,120.2,195.04,528.44,Single-ply,SBD,M
Boys,110,3,Brady Cooke,Panhandle,109.41,199.58,106.59,181.44,487.61,Single-ply,SBD,M
Boys,110,4,David Navarrete,Perryton,102.56,183.7,108.86,181.44,474,Single-ply,SBD,M
Boys,110,5,Rey Heredia,Borger,109.04,183.7,120.2,163.29,467.2,Single-ply,SBD,M
Boys,110,6,Adam Acevedo,Dumas,105.05,174.63,97.52,188.24,460.4,Single-ply,SBD,M
Boys,110,7,Ubaldo Tarango,Perryton,101.6,170.1,95.25,172.37,437.72,Single-ply,SBD,M
Boys,110,8,Cole Beacon,Panhandle,104.87,165.56,77.11,176.9,419.57,Single-ply,SBD,M
Boys,110,9,Braxton Novak,Amarillo Highland Park,103.24,133.81,115.67,158.76,408.23,Single-ply,SBD,M
Boys,110,10,Miguel Celis,Perryton,108.14,149.69,77.11,147.42,374.21,Single-ply,SBD,M
Boys,125,1,Casey Stewart,Dalhart,124.74,290.3,136.08,206.38,632.76,Single-ply,SBD,M
Boys,125,2,Manuel Alvidrez,Dumas,121.65,210.92,140.61,235.87,587.4,Single-ply,SBD,M
Boys,125,3,Lorenzo Valdez,Borger,114.49,224.53,113.4,219.99,557.92,Single-ply,SBD,M
Boys,125,4,Alonso Cardenas,Dumas,117.3,210.92,115.67,231.33,557.92,Single-ply,SBD,M
Boys,125,5,Frank Gallegos,Dalhart,120.29,204.12,136.08,192.78,532.97,Single-ply,SBD,M
Boys,125,6,Eli Hernandez,Dumas,118.57,183.7,113.4,183.7,480.81,Single-ply,SBD,M
Boys,125,7,Brendan Herring,Dalhart,115.12,165.56,88.45,165.56,419.57,Single-ply,SBD,M
Boys,125,8,Andy Pena,Perryton,120.93,165.56,104.33,149.69,419.57,Single-ply,SBD,M
Boys,125,9,Omar Hernandez,Dumas,116.21,170.1,88.45,158.76,417.3,Single-ply,SBD,M
Boys,125+,1,Tytus Williams,Borger,130.54,238.14,136.08,215.46,589.67,Single-ply,SBD,M
Boys,125+,2,Isaiah Canas,Dalhart,128.64,195.04,92.99,199.58,487.61,Single-ply,SBD,M
Boys,125+,3,Jordan Applegate,Amarillo Highland Park,142.16,183.7,117.93,183.7,485.34,Single-ply,SBD,M
Boys,125+,4,Jaden Massey,Dalhart,135.26,172.37,127.01,154.22,453.59,Single-ply,SBD,M
