Name,Sex,Division,WeightClassKg,Best3SquatKg,Best3BenchKg,Best3DeadliftKg,TotalKg,Place,Event,Equipment
Jim Ambrose,M,Masters 1,67.5,190,127.5,241.5,559,1,SBD,Single-ply
Hercules Perryman,M,Masters 4,82.5,120,85,145,350,1,SBD,Single-ply
Ian Sullivan,M,Masters 1,100,165,155,175,495,1,SBD,Single-ply
Bradley Horne,M,Open,125+,320,190,325,835,1,SBD,Single-ply
